127.0.0.1 - - [08/Mar/2018:10:29:59 +0530] "GET / HTTP/1.1" 404 951
127.0.0.1 - - [08/Mar/2018:10:30:00 +0530] "GET /NewJobPortal/ HTTP/1.1" 200 13045
127.0.0.1 - - [08/Mar/2018:10:30:00 +0530] "GET /NewJobPortal/css/font-awesome.min.css HTTP/1.1" 200 26711
127.0.0.1 - - [08/Mar/2018:10:30:00 +0530] "GET /NewJobPortal/css/normalize.css HTTP/1.1" 200 7708
127.0.0.1 - - [08/Mar/2018:10:30:00 +0530] "GET /NewJobPortal/css/responsive.css HTTP/1.1" 200 1569
127.0.0.1 - - [08/Mar/2018:10:30:00 +0530] "GET /NewJobPortal/css/style.css HTTP/1.1" 200 18219
127.0.0.1 - - [08/Mar/2018:10:30:00 +0530] "GET /NewJobPortal/css/owl.carousel.css HTTP/1.1" 200 4614
127.0.0.1 - - [08/Mar/2018:10:30:00 +0530] "GET /NewJobPortal/css/main.css HTTP/1.1" 200 5729
127.0.0.1 - - [08/Mar/2018:10:30:01 +0530] "GET /NewJobPortal/img/tech5.jpg HTTP/1.1" 200 108216
127.0.0.1 - - [08/Mar/2018:10:30:01 +0530] "GET /NewJobPortal/img/tech1.jpg HTTP/1.1" 200 278737
127.0.0.1 - - [08/Mar/2018:10:30:01 +0530] "GET /NewJobPortal/img/tech2.jpg HTTP/1.1" 200 372274
127.0.0.1 - - [08/Mar/2018:10:30:01 +0530] "GET /NewJobPortal/img/tech3.jpg HTTP/1.1" 200 180580
127.0.0.1 - - [08/Mar/2018:10:30:01 +0530] "GET /NewJobPortal/img/tech4.jpg HTTP/1.1" 200 93522
127.0.0.1 - - [08/Mar/2018:10:30:05 +0530] "GET /NewJobPortal/load HTTP/1.1" 200 13090
127.0.0.1 - - [08/Mar/2018:10:30:09 +0530] "GET /NewJobPortal/admitcard.jsp HTTP/1.1" 200 936
127.0.0.1 - - [08/Mar/2018:10:30:21 +0530] "POST /NewJobPortal/admitcard HTTP/1.1" 500 3714
127.0.0.1 - - [08/Mar/2018:10:51:17 +0530] "GET / HTTP/1.1" 404 951
127.0.0.1 - - [08/Mar/2018:10:51:17 +0530] "GET /NewJobPortal/ HTTP/1.1" 200 13045
127.0.0.1 - - [08/Mar/2018:10:51:17 +0530] "GET /NewJobPortal/css/responsive.css HTTP/1.1" 200 1569
127.0.0.1 - - [08/Mar/2018:10:51:17 +0530] "GET /NewJobPortal/css/style.css HTTP/1.1" 200 18219
127.0.0.1 - - [08/Mar/2018:10:51:17 +0530] "GET /NewJobPortal/css/main.css HTTP/1.1" 200 5729
127.0.0.1 - - [08/Mar/2018:10:51:17 +0530] "GET /NewJobPortal/css/font-awesome.min.css HTTP/1.1" 200 26711
127.0.0.1 - - [08/Mar/2018:10:51:17 +0530] "GET /NewJobPortal/css/owl.carousel.css HTTP/1.1" 200 4614
127.0.0.1 - - [08/Mar/2018:10:51:17 +0530] "GET /NewJobPortal/css/normalize.css HTTP/1.1" 200 7708
127.0.0.1 - - [08/Mar/2018:10:51:21 +0530] "GET /NewJobPortal/load HTTP/1.1" 200 13090
127.0.0.1 - - [08/Mar/2018:10:51:27 +0530] "GET /NewJobPortal/admitcard.jsp HTTP/1.1" 200 936
127.0.0.1 - - [08/Mar/2018:10:51:39 +0530] "POST /NewJobPortal/admitcard HTTP/1.1" 500 3714
127.0.0.1 - - [08/Mar/2018:10:56:08 +0530] "GET / HTTP/1.1" 404 951
127.0.0.1 - - [08/Mar/2018:10:56:09 +0530] "GET /NewJobPortal/ HTTP/1.1" 200 13045
127.0.0.1 - - [08/Mar/2018:10:56:11 +0530] "GET /NewJobPortal/load HTTP/1.1" 200 13090
127.0.0.1 - - [08/Mar/2018:10:56:13 +0530] "GET /NewJobPortal/login.jsp HTTP/1.1" 200 1614
127.0.0.1 - - [08/Mar/2018:10:56:16 +0530] "GET /NewJobPortal/ HTTP/1.1" 200 13045
127.0.0.1 - - [08/Mar/2018:10:56:16 +0530] "GET /NewJobPortal/css/style.css HTTP/1.1" 200 18219
127.0.0.1 - - [08/Mar/2018:10:56:16 +0530] "GET /NewJobPortal/css/normalize.css HTTP/1.1" 200 7708
127.0.0.1 - - [08/Mar/2018:10:56:16 +0530] "GET /NewJobPortal/css/font-awesome.min.css HTTP/1.1" 200 26711
127.0.0.1 - - [08/Mar/2018:10:56:16 +0530] "GET /NewJobPortal/css/main.css HTTP/1.1" 200 5729
127.0.0.1 - - [08/Mar/2018:10:56:16 +0530] "GET /NewJobPortal/css/responsive.css HTTP/1.1" 200 1569
127.0.0.1 - - [08/Mar/2018:10:56:16 +0530] "GET /NewJobPortal/css/owl.carousel.css HTTP/1.1" 200 4614
127.0.0.1 - - [08/Mar/2018:10:56:18 +0530] "GET /NewJobPortal/load HTTP/1.1" 200 13090
127.0.0.1 - - [08/Mar/2018:10:56:20 +0530] "GET /NewJobPortal/admitcard.jsp HTTP/1.1" 200 936
127.0.0.1 - - [08/Mar/2018:10:56:37 +0530] "POST /NewJobPortal/admitcard HTTP/1.1" 500 3714
127.0.0.1 - - [08/Mar/2018:10:59:36 +0530] "GET / HTTP/1.1" 404 951
127.0.0.1 - - [08/Mar/2018:10:59:37 +0530] "GET /NewJobPortal/ HTTP/1.1" 200 13045
127.0.0.1 - - [08/Mar/2018:10:59:37 +0530] "GET /NewJobPortal/css/main.css HTTP/1.1" 200 5729
127.0.0.1 - - [08/Mar/2018:10:59:37 +0530] "GET /NewJobPortal/css/normalize.css HTTP/1.1" 200 7708
127.0.0.1 - - [08/Mar/2018:10:59:37 +0530] "GET /NewJobPortal/css/font-awesome.min.css HTTP/1.1" 200 26711
127.0.0.1 - - [08/Mar/2018:10:59:37 +0530] "GET /NewJobPortal/css/owl.carousel.css HTTP/1.1" 200 4614
127.0.0.1 - - [08/Mar/2018:10:59:37 +0530] "GET /NewJobPortal/css/style.css HTTP/1.1" 200 18219
127.0.0.1 - - [08/Mar/2018:10:59:37 +0530] "GET /NewJobPortal/css/responsive.css HTTP/1.1" 200 1569
127.0.0.1 - - [08/Mar/2018:10:59:41 +0530] "GET /NewJobPortal/load HTTP/1.1" 200 13090
127.0.0.1 - - [08/Mar/2018:10:59:43 +0530] "GET /NewJobPortal/admitcard.jsp HTTP/1.1" 200 936
127.0.0.1 - - [08/Mar/2018:10:59:53 +0530] "POST /NewJobPortal/admitcard HTTP/1.1" 200 47
127.0.0.1 - - [08/Mar/2018:11:00:51 +0530] "GET /NewJobPortal/ HTTP/1.1" 200 13045
127.0.0.1 - - [08/Mar/2018:11:00:51 +0530] "GET /NewJobPortal/css/normalize.css HTTP/1.1" 304 -
127.0.0.1 - - [08/Mar/2018:11:00:51 +0530] "GET /NewJobPortal/css/owl.carousel.css HTTP/1.1" 304 -
127.0.0.1 - - [08/Mar/2018:11:00:51 +0530] "GET /NewJobPortal/css/main.css HTTP/1.1" 304 -
127.0.0.1 - - [08/Mar/2018:11:00:51 +0530] "GET /NewJobPortal/css/font-awesome.min.css HTTP/1.1" 304 -
127.0.0.1 - - [08/Mar/2018:11:00:51 +0530] "GET /NewJobPortal/css/responsive.css HTTP/1.1" 304 -
127.0.0.1 - - [08/Mar/2018:11:00:51 +0530] "GET /NewJobPortal/img/tech3.jpg HTTP/1.1" 304 -
127.0.0.1 - - [08/Mar/2018:11:00:51 +0530] "GET /NewJobPortal/css/style.css HTTP/1.1" 304 -
127.0.0.1 - - [08/Mar/2018:11:00:51 +0530] "GET /NewJobPortal/img/tech4.jpg HTTP/1.1" 304 -
127.0.0.1 - - [08/Mar/2018:11:00:51 +0530] "GET /NewJobPortal/img/tech5.jpg HTTP/1.1" 304 -
127.0.0.1 - - [08/Mar/2018:11:00:51 +0530] "GET /NewJobPortal/img/tech2.jpg HTTP/1.1" 304 -
127.0.0.1 - - [08/Mar/2018:11:00:51 +0530] "GET /NewJobPortal/img/tech1.jpg HTTP/1.1" 304 -
127.0.0.1 - - [08/Mar/2018:11:00:51 +0530] "GET /favicon.ico HTTP/1.1" 404 973
127.0.0.1 - - [08/Mar/2018:11:00:52 +0530] "GET /NewJobPortal/load HTTP/1.1" 200 13090
127.0.0.1 - - [08/Mar/2018:11:00:53 +0530] "GET /NewJobPortal/admitcard.jsp HTTP/1.1" 200 936
127.0.0.1 - - [08/Mar/2018:11:00:56 +0530] "POST /NewJobPortal/admitcard HTTP/1.1" 200 47
127.0.0.1 - - [08/Mar/2018:11:01:02 +0530] "POST /NewJobPortal/admitcard HTTP/1.1" 200 47
127.0.0.1 - - [08/Mar/2018:11:08:39 +0530] "GET / HTTP/1.1" 404 951
127.0.0.1 - - [08/Mar/2018:11:08:40 +0530] "GET /NewJobPortal/ HTTP/1.1" 200 13045
127.0.0.1 - - [08/Mar/2018:11:08:40 +0530] "GET /NewJobPortal/css/normalize.css HTTP/1.1" 200 7708
127.0.0.1 - - [08/Mar/2018:11:08:40 +0530] "GET /NewJobPortal/css/style.css HTTP/1.1" 200 18219
127.0.0.1 - - [08/Mar/2018:11:08:40 +0530] "GET /NewJobPortal/css/responsive.css HTTP/1.1" 200 1569
127.0.0.1 - - [08/Mar/2018:11:08:40 +0530] "GET /NewJobPortal/css/main.css HTTP/1.1" 200 5729
127.0.0.1 - - [08/Mar/2018:11:08:40 +0530] "GET /NewJobPortal/css/font-awesome.min.css HTTP/1.1" 200 26711
127.0.0.1 - - [08/Mar/2018:11:08:40 +0530] "GET /NewJobPortal/css/owl.carousel.css HTTP/1.1" 200 4614
127.0.0.1 - - [08/Mar/2018:11:08:44 +0530] "GET /NewJobPortal/load HTTP/1.1" 200 13090
127.0.0.1 - - [08/Mar/2018:11:08:46 +0530] "GET /NewJobPortal/admitcard.jsp HTTP/1.1" 200 936
127.0.0.1 - - [08/Mar/2018:11:08:55 +0530] "POST /NewJobPortal/admitcard HTTP/1.1" 200 47
127.0.0.1 - - [08/Mar/2018:11:11:50 +0530] "GET / HTTP/1.1" 404 951
127.0.0.1 - - [08/Mar/2018:11:11:51 +0530] "GET /NewJobPortal/ HTTP/1.1" 200 13045
127.0.0.1 - - [08/Mar/2018:11:11:55 +0530] "GET /NewJobPortal/admitcard.jsp HTTP/1.1" 200 936
127.0.0.1 - - [08/Mar/2018:11:11:56 +0530] "GET /NewJobPortal/load HTTP/1.1" 200 13090
127.0.0.1 - - [08/Mar/2018:11:12:05 +0530] "POST /NewJobPortal/admitcard HTTP/1.1" 200 47
127.0.0.1 - - [08/Mar/2018:11:13:42 +0530] "POST /NewJobPortal/admitcard HTTP/1.1" 200 47
127.0.0.1 - - [08/Mar/2018:11:18:13 +0530] "GET / HTTP/1.1" 404 951
127.0.0.1 - - [08/Mar/2018:11:18:13 +0530] "GET /NewJobPortal/ HTTP/1.1" 200 13045
127.0.0.1 - - [08/Mar/2018:11:18:13 +0530] "GET /NewJobPortal/css/responsive.css HTTP/1.1" 200 1569
127.0.0.1 - - [08/Mar/2018:11:18:13 +0530] "GET /NewJobPortal/css/normalize.css HTTP/1.1" 200 7708
127.0.0.1 - - [08/Mar/2018:11:18:13 +0530] "GET /NewJobPortal/css/main.css HTTP/1.1" 200 5729
127.0.0.1 - - [08/Mar/2018:11:18:13 +0530] "GET /NewJobPortal/css/owl.carousel.css HTTP/1.1" 200 4614
127.0.0.1 - - [08/Mar/2018:11:18:13 +0530] "GET /NewJobPortal/css/style.css HTTP/1.1" 200 18219
127.0.0.1 - - [08/Mar/2018:11:18:13 +0530] "GET /NewJobPortal/css/font-awesome.min.css HTTP/1.1" 200 26711
127.0.0.1 - - [08/Mar/2018:11:18:16 +0530] "GET /NewJobPortal/admitcard.jsp HTTP/1.1" 200 936
127.0.0.1 - - [08/Mar/2018:11:18:18 +0530] "GET /NewJobPortal/load HTTP/1.1" 200 13090
127.0.0.1 - - [08/Mar/2018:11:18:28 +0530] "POST /NewJobPortal/admitcard HTTP/1.1" 200 47
127.0.0.1 - - [08/Mar/2018:11:18:36 +0530] "GET /NewJobPortal/admitcard.jsp HTTP/1.1" 200 936
127.0.0.1 - - [08/Mar/2018:11:18:46 +0530] "POST /NewJobPortal/admitcard HTTP/1.1" 200 47
127.0.0.1 - - [08/Mar/2018:11:28:23 +0530] "GET / HTTP/1.1" 404 951
127.0.0.1 - - [08/Mar/2018:11:28:24 +0530] "GET /NewJobPortal/ HTTP/1.1" 200 13045
127.0.0.1 - - [08/Mar/2018:11:28:24 +0530] "GET /NewJobPortal/css/style.css HTTP/1.1" 200 18219
127.0.0.1 - - [08/Mar/2018:11:28:24 +0530] "GET /NewJobPortal/css/main.css HTTP/1.1" 200 5729
127.0.0.1 - - [08/Mar/2018:11:28:24 +0530] "GET /NewJobPortal/css/owl.carousel.css HTTP/1.1" 200 4614
127.0.0.1 - - [08/Mar/2018:11:28:24 +0530] "GET /NewJobPortal/css/font-awesome.min.css HTTP/1.1" 200 26711
127.0.0.1 - - [08/Mar/2018:11:28:24 +0530] "GET /NewJobPortal/css/responsive.css HTTP/1.1" 200 1569
127.0.0.1 - - [08/Mar/2018:11:28:24 +0530] "GET /NewJobPortal/css/normalize.css HTTP/1.1" 200 7708
127.0.0.1 - - [08/Mar/2018:11:28:33 +0530] "GET /NewJobPortal/load HTTP/1.1" 200 13090
127.0.0.1 - - [08/Mar/2018:11:28:33 +0530] "GET /NewJobPortal/login.jsp HTTP/1.1" 200 1614
127.0.0.1 - - [08/Mar/2018:11:28:45 +0530] "POST /NewJobPortal/login HTTP/1.1" 200 432
127.0.0.1 - - [08/Mar/2018:11:28:45 +0530] "GET /NewJobPortal/top.jsp HTTP/1.1" 200 2331
127.0.0.1 - - [08/Mar/2018:11:28:45 +0530] "GET /NewJobPortal/left.jsp HTTP/1.1" 200 48
127.0.0.1 - - [08/Mar/2018:11:28:45 +0530] "GET /NewJobPortal/rightt.jsp HTTP/1.1" 200 48
127.0.0.1 - - [08/Mar/2018:11:28:45 +0530] "GET /NewJobPortal/graph.jsp HTTP/1.1" 200 1539
127.0.0.1 - - [08/Mar/2018:11:28:45 +0530] "GET /NewJobPortal/admin HTTP/1.1" 200 2338
127.0.0.1 - - [08/Mar/2018:11:28:45 +0530] "GET /NewJobPortal/details?jcode=null HTTP/1.1" 200 1565
127.0.0.1 - - [08/Mar/2018:11:29:22 +0530] "GET /NewJobPortal/y HTTP/1.1" 404 979
127.0.0.1 - - [08/Mar/2018:11:29:25 +0530] "GET /NewJobPortal/postjob.jsp HTTP/1.1" 200 4365
127.0.0.1 - - [08/Mar/2018:11:29:25 +0530] "POST /NewJobPortal/update HTTP/1.1" 200 4509
127.0.0.1 - - [08/Mar/2018:11:29:34 +0530] "GET /NewJobPortal/graph.jsp?jcode=FRS20184 HTTP/1.1" 200 1547
127.0.0.1 - - [08/Mar/2018:11:29:36 +0530] "GET /NewJobPortal/details?jcode=FRS20184 HTTP/1.1" 200 1602
127.0.0.1 - - [08/Mar/2018:11:57:53 +0530] "GET / HTTP/1.1" 404 951
127.0.0.1 - - [08/Mar/2018:11:57:54 +0530] "GET /NewJobPortal/ HTTP/1.1" 200 13045
127.0.0.1 - - [08/Mar/2018:11:57:54 +0530] "GET /NewJobPortal/css/normalize.css HTTP/1.1" 200 7708
127.0.0.1 - - [08/Mar/2018:11:57:54 +0530] "GET /NewJobPortal/css/style.css HTTP/1.1" 200 18219
127.0.0.1 - - [08/Mar/2018:11:57:54 +0530] "GET /NewJobPortal/css/responsive.css HTTP/1.1" 200 1569
127.0.0.1 - - [08/Mar/2018:11:57:54 +0530] "GET /NewJobPortal/css/owl.carousel.css HTTP/1.1" 200 4614
127.0.0.1 - - [08/Mar/2018:11:57:54 +0530] "GET /NewJobPortal/css/main.css HTTP/1.1" 200 5729
127.0.0.1 - - [08/Mar/2018:11:57:54 +0530] "GET /NewJobPortal/css/font-awesome.min.css HTTP/1.1" 200 26711
127.0.0.1 - - [08/Mar/2018:11:58:04 +0530] "GET /NewJobPortal/load HTTP/1.1" 200 13090
127.0.0.1 - - [08/Mar/2018:11:58:06 +0530] "GET /NewJobPortal/admitcard.jsp HTTP/1.1" 200 936
127.0.0.1 - - [08/Mar/2018:11:58:16 +0530] "POST /NewJobPortal/admitcard HTTP/1.1" 200 413
127.0.0.1 - - [08/Mar/2018:11:59:10 +0530] "GET /NewJobPortal/admitcard.jsp HTTP/1.1" 200 936
127.0.0.1 - - [08/Mar/2018:12:02:17 +0530] "GET / HTTP/1.1" 404 951
127.0.0.1 - - [08/Mar/2018:12:02:18 +0530] "GET /NewJobPortal/ HTTP/1.1" 200 13045
127.0.0.1 - - [08/Mar/2018:12:02:18 +0530] "GET /NewJobPortal/css/owl.carousel.css HTTP/1.1" 200 4614
127.0.0.1 - - [08/Mar/2018:12:02:18 +0530] "GET /NewJobPortal/css/responsive.css HTTP/1.1" 200 1569
127.0.0.1 - - [08/Mar/2018:12:02:18 +0530] "GET /NewJobPortal/css/font-awesome.min.css HTTP/1.1" 200 26711
127.0.0.1 - - [08/Mar/2018:12:02:18 +0530] "GET /NewJobPortal/css/style.css HTTP/1.1" 200 18219
127.0.0.1 - - [08/Mar/2018:12:02:18 +0530] "GET /NewJobPortal/css/normalize.css HTTP/1.1" 200 7708
127.0.0.1 - - [08/Mar/2018:12:02:18 +0530] "GET /NewJobPortal/css/main.css HTTP/1.1" 200 5729
127.0.0.1 - - [08/Mar/2018:12:02:26 +0530] "GET /NewJobPortal/load HTTP/1.1" 200 13090
127.0.0.1 - - [08/Mar/2018:12:02:29 +0530] "GET /NewJobPortal/admitcard.jsp HTTP/1.1" 200 936
127.0.0.1 - - [08/Mar/2018:12:02:38 +0530] "POST /NewJobPortal/admitcard HTTP/1.1" 200 71
127.0.0.1 - - [08/Mar/2018:12:02:49 +0530] "GET /NewJobPortal/admitcard.jsp HTTP/1.1" 200 936
127.0.0.1 - - [08/Mar/2018:12:03:07 +0530] "POST /NewJobPortal/admitcard HTTP/1.1" 200 71
127.0.0.1 - - [08/Mar/2018:12:03:10 +0530] "GET /NewJobPortal/admitcard.jsp HTTP/1.1" 200 936
127.0.0.1 - - [08/Mar/2018:12:04:20 +0530] "GET / HTTP/1.1" 404 951
127.0.0.1 - - [08/Mar/2018:12:04:21 +0530] "GET /NewJobPortal/ HTTP/1.1" 200 13045
127.0.0.1 - - [08/Mar/2018:12:04:21 +0530] "GET /NewJobPortal/css/main.css HTTP/1.1" 200 5729
127.0.0.1 - - [08/Mar/2018:12:04:21 +0530] "GET /NewJobPortal/css/style.css HTTP/1.1" 200 18219
127.0.0.1 - - [08/Mar/2018:12:04:21 +0530] "GET /NewJobPortal/css/responsive.css HTTP/1.1" 200 1569
127.0.0.1 - - [08/Mar/2018:12:04:21 +0530] "GET /NewJobPortal/css/normalize.css HTTP/1.1" 200 7708
127.0.0.1 - - [08/Mar/2018:12:04:21 +0530] "GET /NewJobPortal/css/owl.carousel.css HTTP/1.1" 200 4614
127.0.0.1 - - [08/Mar/2018:12:04:21 +0530] "GET /NewJobPortal/css/font-awesome.min.css HTTP/1.1" 200 26711
127.0.0.1 - - [08/Mar/2018:12:04:31 +0530] "GET /NewJobPortal/img/tech1.jpg HTTP/1.1" 200 278737
127.0.0.1 - - [08/Mar/2018:12:04:31 +0530] "GET /NewJobPortal/img/tech4.jpg HTTP/1.1" 200 93522
127.0.0.1 - - [08/Mar/2018:12:04:31 +0530] "GET /NewJobPortal/img/tech5.jpg HTTP/1.1" 200 108216
127.0.0.1 - - [08/Mar/2018:12:04:31 +0530] "GET /NewJobPortal/img/tech2.jpg HTTP/1.1" 200 372274
127.0.0.1 - - [08/Mar/2018:12:04:33 +0530] "GET /NewJobPortal/load HTTP/1.1" 200 13090
127.0.0.1 - - [08/Mar/2018:12:04:35 +0530] "GET /NewJobPortal/admitcard.jsp HTTP/1.1" 200 936
127.0.0.1 - - [08/Mar/2018:12:04:46 +0530] "POST /NewJobPortal/admitcard HTTP/1.1" 200 71
127.0.0.1 - - [08/Mar/2018:12:04:49 +0530] "GET /NewJobPortal/admitcard.jsp HTTP/1.1" 200 936
127.0.0.1 - - [08/Mar/2018:12:04:59 +0530] "POST /NewJobPortal/admitcard HTTP/1.1" 200 413
127.0.0.1 - - [08/Mar/2018:12:09:45 +0530] "GET / HTTP/1.1" 404 951
127.0.0.1 - - [08/Mar/2018:12:09:46 +0530] "GET /NewJobPortal/ HTTP/1.1" 200 13045
127.0.0.1 - - [08/Mar/2018:12:09:47 +0530] "GET /NewJobPortal/admitcard.jsp HTTP/1.1" 200 936
127.0.0.1 - - [08/Mar/2018:12:09:48 +0530] "GET /NewJobPortal/load HTTP/1.1" 200 13090
127.0.0.1 - - [08/Mar/2018:12:09:58 +0530] "POST /NewJobPortal/admitcard HTTP/1.1" 200 438
127.0.0.1 - - [08/Mar/2018:12:10:05 +0530] "GET /NewJobPortal/admitcard.jsp HTTP/1.1" 200 936
127.0.0.1 - - [08/Mar/2018:12:10:13 +0530] "POST /NewJobPortal/admitcard HTTP/1.1" 200 980
127.0.0.1 - - [08/Mar/2018:12:12:02 +0530] "GET /NewJobPortal/login.jsp HTTP/1.1" 200 1614
127.0.0.1 - - [08/Mar/2018:12:12:08 +0530] "POST /NewJobPortal/login HTTP/1.1" 200 432
127.0.0.1 - - [08/Mar/2018:12:12:08 +0530] "GET /NewJobPortal/top.jsp HTTP/1.1" 200 2331
127.0.0.1 - - [08/Mar/2018:12:12:08 +0530] "GET /NewJobPortal/left.jsp HTTP/1.1" 200 48
127.0.0.1 - - [08/Mar/2018:12:12:08 +0530] "GET /NewJobPortal/rightt.jsp HTTP/1.1" 200 48
127.0.0.1 - - [08/Mar/2018:12:12:08 +0530] "GET /NewJobPortal/graph.jsp HTTP/1.1" 200 1539
127.0.0.1 - - [08/Mar/2018:12:12:08 +0530] "GET /NewJobPortal/admin HTTP/1.1" 200 2335
127.0.0.1 - - [08/Mar/2018:12:12:08 +0530] "GET /NewJobPortal/details?jcode=null HTTP/1.1" 200 1565
127.0.0.1 - - [08/Mar/2018:12:12:12 +0530] "POST /NewJobPortal/list?jcode= HTTP/1.1" 200 506
127.0.0.1 - - [08/Mar/2018:12:12:15 +0530] "GET /NewJobPortal/postjob.jsp HTTP/1.1" 200 4365
127.0.0.1 - - [08/Mar/2018:12:12:15 +0530] "POST /NewJobPortal/update HTTP/1.1" 200 5053
127.0.0.1 - - [08/Mar/2018:12:12:18 +0530] "GET /NewJobPortal/graph.jsp?jcode=FRS20187 HTTP/1.1" 200 1547
127.0.0.1 - - [08/Mar/2018:12:12:18 +0530] "GET /NewJobPortal/details?jcode=FRS20187 HTTP/1.1" 200 1602
127.0.0.1 - - [08/Mar/2018:12:12:22 +0530] "POST /NewJobPortal/list?jcode= HTTP/1.1" 200 1509
127.0.0.1 - - [08/Mar/2018:12:18:09 +0530] "GET /NewJobPortal/ HTTP/1.1" 200 13045
127.0.0.1 - - [08/Mar/2018:12:18:09 +0530] "GET /NewJobPortal/load HTTP/1.1" 200 13090
127.0.0.1 - - [08/Mar/2018:12:18:11 +0530] "GET /NewJobPortal/admitcard.jsp HTTP/1.1" 200 936
127.0.0.1 - - [08/Mar/2018:12:18:14 +0530] "POST /NewJobPortal/admitcard HTTP/1.1" 200 963
127.0.0.1 - - [08/Mar/2018:12:18:19 +0530] "POST /NewJobPortal/admitcard HTTP/1.1" 200 438
127.0.0.1 - - [08/Mar/2018:12:28:41 +0530] "GET / HTTP/1.1" 404 951
127.0.0.1 - - [08/Mar/2018:12:28:41 +0530] "GET /NewJobPortal/ HTTP/1.1" 200 13045
127.0.0.1 - - [08/Mar/2018:12:28:41 +0530] "GET /NewJobPortal/css/normalize.css HTTP/1.1" 200 7708
127.0.0.1 - - [08/Mar/2018:12:28:41 +0530] "GET /NewJobPortal/css/owl.carousel.css HTTP/1.1" 200 4614
127.0.0.1 - - [08/Mar/2018:12:28:41 +0530] "GET /NewJobPortal/css/main.css HTTP/1.1" 200 5729
127.0.0.1 - - [08/Mar/2018:12:28:41 +0530] "GET /NewJobPortal/css/responsive.css HTTP/1.1" 200 1569
127.0.0.1 - - [08/Mar/2018:12:28:41 +0530] "GET /NewJobPortal/css/style.css HTTP/1.1" 200 18219
127.0.0.1 - - [08/Mar/2018:12:28:41 +0530] "GET /NewJobPortal/css/font-awesome.min.css HTTP/1.1" 200 26711
127.0.0.1 - - [08/Mar/2018:12:28:47 +0530] "GET /NewJobPortal/login.jsp HTTP/1.1" 200 1614
127.0.0.1 - - [08/Mar/2018:12:28:48 +0530] "GET /NewJobPortal/load HTTP/1.1" 200 13090
127.0.0.1 - - [08/Mar/2018:12:28:53 +0530] "POST /NewJobPortal/login HTTP/1.1" 200 432
127.0.0.1 - - [08/Mar/2018:12:28:53 +0530] "GET /NewJobPortal/rightt.jsp HTTP/1.1" 200 48
127.0.0.1 - - [08/Mar/2018:12:28:53 +0530] "GET /NewJobPortal/left.jsp HTTP/1.1" 200 48
127.0.0.1 - - [08/Mar/2018:12:28:53 +0530] "GET /NewJobPortal/top.jsp HTTP/1.1" 200 2331
127.0.0.1 - - [08/Mar/2018:12:28:53 +0530] "GET /NewJobPortal/graph.jsp HTTP/1.1" 200 1539
127.0.0.1 - - [08/Mar/2018:12:28:53 +0530] "GET /NewJobPortal/admin HTTP/1.1" 200 2335
127.0.0.1 - - [08/Mar/2018:12:28:53 +0530] "GET /NewJobPortal/details?jcode=null HTTP/1.1" 200 1565
127.0.0.1 - - [08/Mar/2018:12:29:22 +0530] "GET /NewJobPortal/sendadmitcard.jsp HTTP/1.1" 200 1107
127.0.0.1 - - [08/Mar/2018:12:29:39 +0530] "POST /NewJobPortal/place HTTP/1.1" 200 83
127.0.0.1 - - [08/Mar/2018:12:29:52 +0530] "GET /NewJobPortal/sendadmitcard.jsp HTTP/1.1" 200 1107
127.0.0.1 - - [08/Mar/2018:12:29:58 +0530] "POST /NewJobPortal/place HTTP/1.1" 200 83
127.0.0.1 - - [08/Mar/2018:12:30:13 +0530] "GET /NewJobPortal/sendadmitcard.jsp HTTP/1.1" 200 1107
127.0.0.1 - - [08/Mar/2018:12:31:06 +0530] "POST /NewJobPortal/place HTTP/1.1" 200 83
127.0.0.1 - - [08/Mar/2018:12:31:14 +0530] "GET /NewJobPortal/sendadmitcard.jsp HTTP/1.1" 200 1107
127.0.0.1 - - [08/Mar/2018:12:31:19 +0530] "POST /NewJobPortal/place HTTP/1.1" 200 83
127.0.0.1 - - [08/Mar/2018:12:31:33 +0530] "GET /NewJobPortal/sendadmitcard.jsp HTTP/1.1" 200 1107
127.0.0.1 - - [08/Mar/2018:12:32:32 +0530] "GET /NewJobPortal/sendadmitcard.jsp HTTP/1.1" 200 1095
127.0.0.1 - - [08/Mar/2018:12:32:32 +0530] "GET /NewJobPortal/sendadmitcard.jsp HTTP/1.1" 200 1095
127.0.0.1 - - [08/Mar/2018:12:32:38 +0530] "POST /NewJobPortal/place HTTP/1.1" 200 83
127.0.0.1 - - [08/Mar/2018:12:32:57 +0530] "GET /NewJobPortal/sendadmitcard.jsp HTTP/1.1" 200 1095
127.0.0.1 - - [08/Mar/2018:12:33:14 +0530] "POST /NewJobPortal/place HTTP/1.1" 200 83
127.0.0.1 - - [08/Mar/2018:12:37:04 +0530] "GET / HTTP/1.1" 404 951
127.0.0.1 - - [08/Mar/2018:12:37:04 +0530] "GET /NewJobPortal/ HTTP/1.1" 200 13045
127.0.0.1 - - [08/Mar/2018:12:37:05 +0530] "GET /NewJobPortal/css/normalize.css HTTP/1.1" 200 7708
127.0.0.1 - - [08/Mar/2018:12:37:05 +0530] "GET /NewJobPortal/css/style.css HTTP/1.1" 200 18219
127.0.0.1 - - [08/Mar/2018:12:37:05 +0530] "GET /NewJobPortal/css/font-awesome.min.css HTTP/1.1" 200 26711
127.0.0.1 - - [08/Mar/2018:12:37:05 +0530] "GET /NewJobPortal/css/owl.carousel.css HTTP/1.1" 200 4614
127.0.0.1 - - [08/Mar/2018:12:37:05 +0530] "GET /NewJobPortal/css/responsive.css HTTP/1.1" 200 1569
127.0.0.1 - - [08/Mar/2018:12:37:05 +0530] "GET /NewJobPortal/css/main.css HTTP/1.1" 200 5729
127.0.0.1 - - [08/Mar/2018:12:37:09 +0530] "GET /NewJobPortal/load HTTP/1.1" 200 13090
127.0.0.1 - - [08/Mar/2018:12:37:21 +0530] "GET /NewJobPortal/login.jsp HTTP/1.1" 200 1614
127.0.0.1 - - [08/Mar/2018:12:37:29 +0530] "POST /NewJobPortal/login HTTP/1.1" 200 432
127.0.0.1 - - [08/Mar/2018:12:37:29 +0530] "GET /NewJobPortal/top.jsp HTTP/1.1" 200 2331
127.0.0.1 - - [08/Mar/2018:12:37:29 +0530] "GET /NewJobPortal/left.jsp HTTP/1.1" 200 48
127.0.0.1 - - [08/Mar/2018:12:37:29 +0530] "GET /NewJobPortal/rightt.jsp HTTP/1.1" 200 48
127.0.0.1 - - [08/Mar/2018:12:37:29 +0530] "GET /NewJobPortal/graph.jsp HTTP/1.1" 200 1539
127.0.0.1 - - [08/Mar/2018:12:37:29 +0530] "GET /NewJobPortal/admin HTTP/1.1" 200 2335
127.0.0.1 - - [08/Mar/2018:12:37:29 +0530] "GET /NewJobPortal/details?jcode=null HTTP/1.1" 200 1565
127.0.0.1 - - [08/Mar/2018:12:37:31 +0530] "GET /NewJobPortal/sendadmitcard.jsp HTTP/1.1" 200 1095
127.0.0.1 - - [08/Mar/2018:12:37:38 +0530] "POST /NewJobPortal/place HTTP/1.1" 200 83
127.0.0.1 - - [08/Mar/2018:12:38:28 +0530] "GET / HTTP/1.1" 404 951
127.0.0.1 - - [08/Mar/2018:12:38:29 +0530] "GET /NewJobPortal/ HTTP/1.1" 200 13045
127.0.0.1 - - [08/Mar/2018:12:38:29 +0530] "GET /NewJobPortal/css/normalize.css HTTP/1.1" 200 7708
127.0.0.1 - - [08/Mar/2018:12:38:29 +0530] "GET /NewJobPortal/css/font-awesome.min.css HTTP/1.1" 200 26711
127.0.0.1 - - [08/Mar/2018:12:38:29 +0530] "GET /NewJobPortal/css/style.css HTTP/1.1" 200 18219
127.0.0.1 - - [08/Mar/2018:12:38:29 +0530] "GET /NewJobPortal/css/main.css HTTP/1.1" 200 5729
127.0.0.1 - - [08/Mar/2018:12:38:29 +0530] "GET /NewJobPortal/css/owl.carousel.css HTTP/1.1" 200 4614
127.0.0.1 - - [08/Mar/2018:12:38:29 +0530] "GET /NewJobPortal/css/responsive.css HTTP/1.1" 200 1569
127.0.0.1 - - [08/Mar/2018:12:39:02 +0530] "GET /NewJobPortal/ HTTP/1.1" 200 13045
127.0.0.1 - - [08/Mar/2018:12:39:04 +0530] "GET /NewJobPortal/login.jsp HTTP/1.1" 200 1614
127.0.0.1 - - [08/Mar/2018:12:39:05 +0530] "GET /NewJobPortal/load HTTP/1.1" 200 13090
127.0.0.1 - - [08/Mar/2018:12:39:10 +0530] "POST /NewJobPortal/login HTTP/1.1" 200 432
127.0.0.1 - - [08/Mar/2018:12:39:10 +0530] "GET /NewJobPortal/left.jsp HTTP/1.1" 200 48
127.0.0.1 - - [08/Mar/2018:12:39:10 +0530] "GET /NewJobPortal/top.jsp HTTP/1.1" 200 2331
127.0.0.1 - - [08/Mar/2018:12:39:10 +0530] "GET /NewJobPortal/graph.jsp HTTP/1.1" 200 1539
127.0.0.1 - - [08/Mar/2018:12:39:10 +0530] "GET /NewJobPortal/rightt.jsp HTTP/1.1" 200 48
127.0.0.1 - - [08/Mar/2018:12:39:10 +0530] "GET /NewJobPortal/admin HTTP/1.1" 200 2335
127.0.0.1 - - [08/Mar/2018:12:39:10 +0530] "GET /NewJobPortal/details?jcode=null HTTP/1.1" 200 1565
127.0.0.1 - - [08/Mar/2018:12:39:12 +0530] "GET /NewJobPortal/sendadmitcard.jsp HTTP/1.1" 200 1095
127.0.0.1 - - [08/Mar/2018:12:39:21 +0530] "POST /NewJobPortal/place HTTP/1.1" 200 83
127.0.0.1 - - [08/Mar/2018:12:39:41 +0530] "GET /NewJobPortal/postjob.jsp HTTP/1.1" 200 4365
127.0.0.1 - - [08/Mar/2018:12:39:42 +0530] "POST /NewJobPortal/update HTTP/1.1" 200 5053
127.0.0.1 - - [08/Mar/2018:12:39:46 +0530] "GET /NewJobPortal/graph.jsp?jcode=FRS20183 HTTP/1.1" 200 1547
127.0.0.1 - - [08/Mar/2018:12:39:46 +0530] "GET /NewJobPortal/details?jcode=FRS20183 HTTP/1.1" 200 1573
127.0.0.1 - - [08/Mar/2018:12:39:48 +0530] "POST /NewJobPortal/list?jcode= HTTP/1.1" 200 506
127.0.0.1 - - [08/Mar/2018:12:39:53 +0530] "GET /NewJobPortal/postjob.jsp HTTP/1.1" 200 4365
127.0.0.1 - - [08/Mar/2018:12:39:53 +0530] "POST /NewJobPortal/update HTTP/1.1" 200 5053
127.0.0.1 - - [08/Mar/2018:12:39:55 +0530] "GET /NewJobPortal/graph.jsp?jcode=FRS20185 HTTP/1.1" 200 1547
127.0.0.1 - - [08/Mar/2018:12:39:55 +0530] "GET /NewJobPortal/details?jcode=FRS20185 HTTP/1.1" 200 1573
127.0.0.1 - - [08/Mar/2018:12:39:57 +0530] "GET /NewJobPortal/postjob.jsp HTTP/1.1" 200 4365
127.0.0.1 - - [08/Mar/2018:12:39:57 +0530] "POST /NewJobPortal/update HTTP/1.1" 200 5053
127.0.0.1 - - [08/Mar/2018:12:39:59 +0530] "GET /NewJobPortal/graph.jsp?jcode=FRS20183 HTTP/1.1" 200 1547
127.0.0.1 - - [08/Mar/2018:12:39:59 +0530] "GET /NewJobPortal/details?jcode=FRS20183 HTTP/1.1" 200 1573
127.0.0.1 - - [08/Mar/2018:12:40:00 +0530] "GET /NewJobPortal/postjob.jsp HTTP/1.1" 200 4365
127.0.0.1 - - [08/Mar/2018:12:40:00 +0530] "POST /NewJobPortal/update HTTP/1.1" 200 5053
127.0.0.1 - - [08/Mar/2018:12:40:01 +0530] "GET /NewJobPortal/graph.jsp?jcode=FRS20182 HTTP/1.1" 200 1547
127.0.0.1 - - [08/Mar/2018:12:40:01 +0530] "GET /NewJobPortal/details?jcode=FRS20182 HTTP/1.1" 200 1573
127.0.0.1 - - [08/Mar/2018:12:40:03 +0530] "GET /NewJobPortal/postjob.jsp HTTP/1.1" 200 4365
127.0.0.1 - - [08/Mar/2018:12:40:03 +0530] "POST /NewJobPortal/update HTTP/1.1" 200 5053
127.0.0.1 - - [08/Mar/2018:12:40:04 +0530] "GET /NewJobPortal/graph.jsp?jcode=FRS20186 HTTP/1.1" 200 1547
127.0.0.1 - - [08/Mar/2018:12:40:05 +0530] "GET /NewJobPortal/details?jcode=FRS20186 HTTP/1.1" 200 1602
127.0.0.1 - - [08/Mar/2018:12:40:11 +0530] "POST /NewJobPortal/list?jcode= HTTP/1.1" 200 993
127.0.0.1 - - [08/Mar/2018:12:42:39 +0530] "GET / HTTP/1.1" 404 951
127.0.0.1 - - [08/Mar/2018:12:42:40 +0530] "GET /NewJobPortal/ HTTP/1.1" 200 13045
127.0.0.1 - - [08/Mar/2018:12:42:50 +0530] "POST /NewJobPortal/update HTTP/1.1" 500 3705
127.0.0.1 - - [08/Mar/2018:12:42:50 +0530] "POST /NewJobPortal/update HTTP/1.1" 500 3705
127.0.0.1 - - [08/Mar/2018:12:42:50 +0530] "POST /NewJobPortal/update HTTP/1.1" 500 3705
127.0.0.1 - - [08/Mar/2018:12:42:50 +0530] "POST /NewJobPortal/update HTTP/1.1" 500 3705
127.0.0.1 - - [08/Mar/2018:12:42:50 +0530] "POST /NewJobPortal/update HTTP/1.1" 500 3705
127.0.0.1 - - [08/Mar/2018:12:42:51 +0530] "GET /NewJobPortal/load HTTP/1.1" 200 13090
127.0.0.1 - - [08/Mar/2018:12:42:52 +0530] "GET /NewJobPortal/ HTTP/1.1" 200 13045
127.0.0.1 - - [08/Mar/2018:12:42:53 +0530] "GET /NewJobPortal/load HTTP/1.1" 200 13090
127.0.0.1 - - [08/Mar/2018:12:42:55 +0530] "GET /NewJobPortal/admitcard.jsp HTTP/1.1" 200 936
127.0.0.1 - - [08/Mar/2018:12:42:58 +0530] "GET /NewJobPortal/login.jsp HTTP/1.1" 200 1614
127.0.0.1 - - [08/Mar/2018:12:43:05 +0530] "POST /NewJobPortal/login HTTP/1.1" 200 1640
127.0.0.1 - - [08/Mar/2018:12:43:15 +0530] "POST /NewJobPortal/login HTTP/1.1" 200 1640
127.0.0.1 - - [08/Mar/2018:12:43:22 +0530] "POST /NewJobPortal/login HTTP/1.1" 200 432
127.0.0.1 - - [08/Mar/2018:12:43:22 +0530] "GET /NewJobPortal/top.jsp HTTP/1.1" 200 2331
127.0.0.1 - - [08/Mar/2018:12:43:22 +0530] "GET /NewJobPortal/left.jsp HTTP/1.1" 200 48
127.0.0.1 - - [08/Mar/2018:12:43:22 +0530] "GET /NewJobPortal/rightt.jsp HTTP/1.1" 200 48
127.0.0.1 - - [08/Mar/2018:12:43:22 +0530] "GET /NewJobPortal/graph.jsp HTTP/1.1" 200 1539
127.0.0.1 - - [08/Mar/2018:12:43:22 +0530] "GET /NewJobPortal/admin HTTP/1.1" 200 2335
127.0.0.1 - - [08/Mar/2018:12:43:22 +0530] "GET /NewJobPortal/details?jcode=null HTTP/1.1" 200 1565
127.0.0.1 - - [08/Mar/2018:12:43:25 +0530] "GET /NewJobPortal/sendadmitcard.jsp HTTP/1.1" 200 1095
127.0.0.1 - - [08/Mar/2018:12:43:34 +0530] "POST /NewJobPortal/place HTTP/1.1" 200 83
127.0.0.1 - - [08/Mar/2018:12:43:42 +0530] "GET /NewJobPortal/load HTTP/1.1" 200 13090
127.0.0.1 - - [08/Mar/2018:12:43:49 +0530] "GET /NewJobPortal/sendadmitcard.jsp HTTP/1.1" 200 1095
127.0.0.1 - - [08/Mar/2018:12:44:05 +0530] "POST /NewJobPortal/place HTTP/1.1" 200 83
127.0.0.1 - - [08/Mar/2018:12:52:18 +0530] "GET / HTTP/1.1" 404 951
127.0.0.1 - - [08/Mar/2018:12:52:19 +0530] "GET /NewJobPortal/ HTTP/1.1" 200 13045
127.0.0.1 - - [08/Mar/2018:12:52:21 +0530] "GET /NewJobPortal/load HTTP/1.1" 200 13090
127.0.0.1 - - [08/Mar/2018:12:52:30 +0530] "GET /NewJobPortal HTTP/1.1" 302 -
127.0.0.1 - - [08/Mar/2018:12:52:30 +0530] "GET /NewJobPortal/ HTTP/1.1" 200 13045
127.0.0.1 - - [08/Mar/2018:12:52:30 +0530] "GET /NewJobPortal/load HTTP/1.1" 200 13090
127.0.0.1 - - [08/Mar/2018:12:52:32 +0530] "GET /NewJobPortal/login.jsp HTTP/1.1" 200 1614
127.0.0.1 - - [08/Mar/2018:12:52:37 +0530] "POST /NewJobPortal/login HTTP/1.1" 200 432
127.0.0.1 - - [08/Mar/2018:12:52:38 +0530] "GET /NewJobPortal/rightt.jsp HTTP/1.1" 200 48
127.0.0.1 - - [08/Mar/2018:12:52:38 +0530] "GET /NewJobPortal/left.jsp HTTP/1.1" 200 48
127.0.0.1 - - [08/Mar/2018:12:52:38 +0530] "GET /NewJobPortal/top.jsp HTTP/1.1" 200 2331
127.0.0.1 - - [08/Mar/2018:12:52:38 +0530] "GET /NewJobPortal/admin HTTP/1.1" 200 2335
127.0.0.1 - - [08/Mar/2018:12:52:38 +0530] "GET /NewJobPortal/graph.jsp HTTP/1.1" 200 1539
127.0.0.1 - - [08/Mar/2018:12:52:38 +0530] "GET /NewJobPortal/details?jcode=null HTTP/1.1" 200 1565
127.0.0.1 - - [08/Mar/2018:12:52:40 +0530] "GET /NewJobPortal/sendadmitcard.jsp HTTP/1.1" 200 1095
127.0.0.1 - - [08/Mar/2018:12:52:49 +0530] "POST /NewJobPortal/place HTTP/1.1" 200 83
127.0.0.1 - - [08/Mar/2018:12:55:04 +0530] "GET / HTTP/1.1" 404 951
127.0.0.1 - - [08/Mar/2018:12:55:05 +0530] "GET /NewJobPortal/ HTTP/1.1" 200 13045
127.0.0.1 - - [08/Mar/2018:12:55:07 +0530] "GET /NewJobPortal/load HTTP/1.1" 200 13090
127.0.0.1 - - [08/Mar/2018:12:55:19 +0530] "GET /NewJobPortal/ HTTP/1.1" 200 13045
127.0.0.1 - - [08/Mar/2018:12:55:19 +0530] "GET /NewJobPortal/load HTTP/1.1" 200 13090
127.0.0.1 - - [08/Mar/2018:12:55:22 +0530] "GET /NewJobPortal/login.jsp HTTP/1.1" 200 1614
127.0.0.1 - - [08/Mar/2018:12:55:27 +0530] "POST /NewJobPortal/login HTTP/1.1" 200 432
127.0.0.1 - - [08/Mar/2018:12:55:27 +0530] "GET /NewJobPortal/left.jsp HTTP/1.1" 200 48
127.0.0.1 - - [08/Mar/2018:12:55:27 +0530] "GET /NewJobPortal/top.jsp HTTP/1.1" 200 2331
127.0.0.1 - - [08/Mar/2018:12:55:27 +0530] "GET /NewJobPortal/graph.jsp HTTP/1.1" 200 1539
127.0.0.1 - - [08/Mar/2018:12:55:27 +0530] "GET /NewJobPortal/rightt.jsp HTTP/1.1" 200 48
127.0.0.1 - - [08/Mar/2018:12:55:27 +0530] "GET /NewJobPortal/admin HTTP/1.1" 200 2335
127.0.0.1 - - [08/Mar/2018:12:55:27 +0530] "GET /NewJobPortal/details?jcode=null HTTP/1.1" 200 1565
127.0.0.1 - - [08/Mar/2018:12:55:29 +0530] "GET /NewJobPortal/sendadmitcard.jsp HTTP/1.1" 200 1095
127.0.0.1 - - [08/Mar/2018:12:56:11 +0530] "POST /NewJobPortal/place HTTP/1.1" 200 83
127.0.0.1 - - [08/Mar/2018:12:56:51 +0530] "GET /NewJobPortal/sendadmitcard.jsp HTTP/1.1" 200 1095
127.0.0.1 - - [08/Mar/2018:12:57:21 +0530] "POST /NewJobPortal/place HTTP/1.1" 200 83
127.0.0.1 - - [08/Mar/2018:13:00:27 +0530] "POST /NewJobPortal/place HTTP/1.1" 200 83
127.0.0.1 - - [08/Mar/2018:14:25:37 +0530] "GET / HTTP/1.1" 404 951
127.0.0.1 - - [08/Mar/2018:14:25:38 +0530] "GET /NewJobPortal/ HTTP/1.1" 200 13045
127.0.0.1 - - [08/Mar/2018:14:25:40 +0530] "GET /NewJobPortal/load HTTP/1.1" 200 13090
127.0.0.1 - - [08/Mar/2018:14:26:00 +0530] "GET /NewJobPortal/ HTTP/1.1" 200 13045
127.0.0.1 - - [08/Mar/2018:14:26:00 +0530] "GET /NewJobPortal/load HTTP/1.1" 200 13090
127.0.0.1 - - [08/Mar/2018:14:26:04 +0530] "GET /NewJobPortal/admitcard.jsp HTTP/1.1" 200 936
127.0.0.1 - - [08/Mar/2018:14:26:07 +0530] "POST /NewJobPortal/admitcard HTTP/1.1" 200 71
127.0.0.1 - - [08/Mar/2018:14:26:19 +0530] "POST /NewJobPortal/admitcard HTTP/1.1" 200 78
127.0.0.1 - - [08/Mar/2018:14:27:29 +0530] "GET /NewJobPortal/login.jsp HTTP/1.1" 200 1614
127.0.0.1 - - [08/Mar/2018:14:27:34 +0530] "POST /NewJobPortal/login HTTP/1.1" 200 432
127.0.0.1 - - [08/Mar/2018:14:27:34 +0530] "GET /NewJobPortal/top.jsp HTTP/1.1" 200 2331
127.0.0.1 - - [08/Mar/2018:14:27:34 +0530] "GET /NewJobPortal/left.jsp HTTP/1.1" 200 48
127.0.0.1 - - [08/Mar/2018:14:27:34 +0530] "GET /NewJobPortal/graph.jsp HTTP/1.1" 200 1539
127.0.0.1 - - [08/Mar/2018:14:27:34 +0530] "GET /NewJobPortal/rightt.jsp HTTP/1.1" 200 48
127.0.0.1 - - [08/Mar/2018:14:27:34 +0530] "GET /NewJobPortal/admin HTTP/1.1" 200 2335
127.0.0.1 - - [08/Mar/2018:14:27:34 +0530] "GET /NewJobPortal/details?jcode=null HTTP/1.1" 200 1565
127.0.0.1 - - [08/Mar/2018:14:27:36 +0530] "GET /NewJobPortal/postjob.jsp HTTP/1.1" 200 4365
127.0.0.1 - - [08/Mar/2018:14:27:37 +0530] "POST /NewJobPortal/update HTTP/1.1" 200 5053
127.0.0.1 - - [08/Mar/2018:14:27:47 +0530] "GET /NewJobPortal/graph.jsp?jcode=FRS20187 HTTP/1.1" 200 1547
127.0.0.1 - - [08/Mar/2018:14:27:48 +0530] "GET /NewJobPortal/details?jcode=FRS20187 HTTP/1.1" 200 1602
127.0.0.1 - - [08/Mar/2018:14:27:52 +0530] "GET /NewJobPortal/sendadmitcard.jsp HTTP/1.1" 200 1124
127.0.0.1 - - [08/Mar/2018:14:28:18 +0530] "POST /NewJobPortal/place HTTP/1.1" 200 83
127.0.0.1 - - [08/Mar/2018:14:28:38 +0530] "POST /NewJobPortal/update HTTP/1.1" 200 5053
127.0.0.1 - - [08/Mar/2018:14:28:43 +0530] "GET /NewJobPortal/admitcard.jsp HTTP/1.1" 200 936
127.0.0.1 - - [08/Mar/2018:14:28:47 +0530] "POST /NewJobPortal/admitcard HTTP/1.1" 200 438
127.0.0.1 - - [08/Mar/2018:14:28:59 +0530] "GET /NewJobPortal/postjob.jsp HTTP/1.1" 200 4365
127.0.0.1 - - [08/Mar/2018:14:29:00 +0530] "POST /NewJobPortal/update HTTP/1.1" 200 5053
127.0.0.1 - - [08/Mar/2018:14:32:06 +0530] "GET /NewJobPortal/postjob.jsp HTTP/1.1" 200 4365
127.0.0.1 - - [08/Mar/2018:14:32:06 +0530] "POST /NewJobPortal/update HTTP/1.1" 200 5053
127.0.0.1 - - [08/Mar/2018:14:32:14 +0530] "GET /NewJobPortal/login.jsp HTTP/1.1" 200 1614
127.0.0.1 - - [08/Mar/2018:14:32:20 +0530] "POST /NewJobPortal/login HTTP/1.1" 200 432
127.0.0.1 - - [08/Mar/2018:14:32:20 +0530] "GET /NewJobPortal/left.jsp HTTP/1.1" 200 48
127.0.0.1 - - [08/Mar/2018:14:32:20 +0530] "GET /NewJobPortal/graph.jsp HTTP/1.1" 200 1539
127.0.0.1 - - [08/Mar/2018:14:32:20 +0530] "GET /NewJobPortal/rightt.jsp HTTP/1.1" 200 48
127.0.0.1 - - [08/Mar/2018:14:32:20 +0530] "GET /NewJobPortal/details?jcode=null HTTP/1.1" 200 1565
127.0.0.1 - - [08/Mar/2018:14:32:20 +0530] "GET /NewJobPortal/top.jsp HTTP/1.1" 200 2333
127.0.0.1 - - [08/Mar/2018:14:32:20 +0530] "GET /NewJobPortal/admin HTTP/1.1" 200 2337
127.0.0.1 - - [08/Mar/2018:14:35:42 +0530] "POST /NewJobPortal/login HTTP/1.1" 200 432
127.0.0.1 - - [08/Mar/2018:14:35:42 +0530] "GET /NewJobPortal/left.jsp HTTP/1.1" 200 48
127.0.0.1 - - [08/Mar/2018:14:35:42 +0530] "GET /NewJobPortal/graph.jsp HTTP/1.1" 200 1539
127.0.0.1 - - [08/Mar/2018:14:35:42 +0530] "GET /NewJobPortal/rightt.jsp HTTP/1.1" 200 48
127.0.0.1 - - [08/Mar/2018:14:35:42 +0530] "GET /NewJobPortal/details?jcode=null HTTP/1.1" 200 1565
127.0.0.1 - - [08/Mar/2018:14:35:43 +0530] "GET /NewJobPortal/top.jsp HTTP/1.1" 200 2333
127.0.0.1 - - [08/Mar/2018:14:35:43 +0530] "GET /NewJobPortal/admin HTTP/1.1" 200 2337
127.0.0.1 - - [08/Mar/2018:14:36:59 +0530] "POST /NewJobPortal/login HTTP/1.1" 200 432
127.0.0.1 - - [08/Mar/2018:14:36:59 +0530] "GET /NewJobPortal/left.jsp HTTP/1.1" 200 48
127.0.0.1 - - [08/Mar/2018:14:36:59 +0530] "GET /NewJobPortal/graph.jsp HTTP/1.1" 200 1539
127.0.0.1 - - [08/Mar/2018:14:36:59 +0530] "GET /NewJobPortal/rightt.jsp HTTP/1.1" 200 48
127.0.0.1 - - [08/Mar/2018:14:36:59 +0530] "GET /NewJobPortal/details?jcode=null HTTP/1.1" 200 1565
127.0.0.1 - - [08/Mar/2018:14:36:59 +0530] "GET /NewJobPortal/top.jsp HTTP/1.1" 200 2351
127.0.0.1 - - [08/Mar/2018:14:36:59 +0530] "GET /NewJobPortal/admin HTTP/1.1" 200 2355
127.0.0.1 - - [08/Mar/2018:14:37:42 +0530] "POST /NewJobPortal/login HTTP/1.1" 200 432
127.0.0.1 - - [08/Mar/2018:14:37:42 +0530] "GET /NewJobPortal/left.jsp HTTP/1.1" 200 48
127.0.0.1 - - [08/Mar/2018:14:37:42 +0530] "GET /NewJobPortal/graph.jsp HTTP/1.1" 200 1539
127.0.0.1 - - [08/Mar/2018:14:37:42 +0530] "GET /NewJobPortal/rightt.jsp HTTP/1.1" 200 48
127.0.0.1 - - [08/Mar/2018:14:37:43 +0530] "GET /NewJobPortal/top.jsp HTTP/1.1" 200 2350
127.0.0.1 - - [08/Mar/2018:14:37:43 +0530] "GET /NewJobPortal/details?jcode=null HTTP/1.1" 200 1565
127.0.0.1 - - [08/Mar/2018:14:37:43 +0530] "GET /NewJobPortal/admin HTTP/1.1" 200 2354
127.0.0.1 - - [08/Mar/2018:14:39:13 +0530] "POST /NewJobPortal/login HTTP/1.1" 200 432
127.0.0.1 - - [08/Mar/2018:14:39:14 +0530] "GET /NewJobPortal/left.jsp HTTP/1.1" 200 48
127.0.0.1 - - [08/Mar/2018:14:39:14 +0530] "GET /NewJobPortal/graph.jsp HTTP/1.1" 200 1539
127.0.0.1 - - [08/Mar/2018:14:39:14 +0530] "GET /NewJobPortal/rightt.jsp HTTP/1.1" 200 48
127.0.0.1 - - [08/Mar/2018:14:39:14 +0530] "GET /NewJobPortal/details?jcode=null HTTP/1.1" 200 1565
127.0.0.1 - - [08/Mar/2018:14:39:14 +0530] "GET /NewJobPortal/top.jsp HTTP/1.1" 200 2334
127.0.0.1 - - [08/Mar/2018:14:39:14 +0530] "GET /NewJobPortal/admin HTTP/1.1" 200 2338
127.0.0.1 - - [08/Mar/2018:14:39:36 +0530] "POST /NewJobPortal/login HTTP/1.1" 200 432
127.0.0.1 - - [08/Mar/2018:14:39:36 +0530] "GET /NewJobPortal/graph.jsp HTTP/1.1" 200 1539
127.0.0.1 - - [08/Mar/2018:14:39:36 +0530] "GET /NewJobPortal/rightt.jsp HTTP/1.1" 200 48
127.0.0.1 - - [08/Mar/2018:14:39:36 +0530] "GET /NewJobPortal/left.jsp HTTP/1.1" 200 48
127.0.0.1 - - [08/Mar/2018:14:39:36 +0530] "GET /NewJobPortal/details?jcode=null HTTP/1.1" 200 1565
127.0.0.1 - - [08/Mar/2018:14:39:36 +0530] "GET /NewJobPortal/top.jsp HTTP/1.1" 200 2334
127.0.0.1 - - [08/Mar/2018:14:39:36 +0530] "GET /NewJobPortal/admin HTTP/1.1" 200 2338
127.0.0.1 - - [08/Mar/2018:15:47:19 +0530] "GET / HTTP/1.1" 404 951
127.0.0.1 - - [08/Mar/2018:15:47:19 +0530] "GET /NewJobPortal/ HTTP/1.1" 200 13045
127.0.0.1 - - [08/Mar/2018:15:47:22 +0530] "GET /NewJobPortal/load HTTP/1.1" 200 13090
127.0.0.1 - - [08/Mar/2018:15:47:28 +0530] "GET /NewJobPortal/ HTTP/1.1" 200 13045
127.0.0.1 - - [08/Mar/2018:15:47:29 +0530] "GET /NewJobPortal/load HTTP/1.1" 200 13090
127.0.0.1 - - [08/Mar/2018:15:47:30 +0530] "GET /NewJobPortal/ HTTP/1.1" 200 13045
127.0.0.1 - - [08/Mar/2018:15:47:31 +0530] "GET /NewJobPortal/load HTTP/1.1" 200 13090
127.0.0.1 - - [08/Mar/2018:15:47:31 +0530] "GET /NewJobPortal/test.jsp HTTP/1.1" 200 980
127.0.0.1 - - [08/Mar/2018:15:47:35 +0530] "POST /NewJobPortal/hallid HTTP/1.1" 200 5150
127.0.0.1 - - [08/Mar/2018:16:04:14 +0530] "POST /NewJobPortal/answer HTTP/1.1" 200 80
127.0.0.1 - - [08/Mar/2018:16:05:16 +0530] "GET /NewJobPortal/ HTTP/1.1" 200 13045
127.0.0.1 - - [08/Mar/2018:16:05:17 +0530] "GET /NewJobPortal/load HTTP/1.1" 200 13090
127.0.0.1 - - [08/Mar/2018:16:05:18 +0530] "GET /NewJobPortal/test.jsp HTTP/1.1" 200 980
127.0.0.1 - - [08/Mar/2018:16:05:21 +0530] "POST /NewJobPortal/hallid HTTP/1.1" 200 5150
127.0.0.1 - - [08/Mar/2018:16:05:25 +0530] "POST /NewJobPortal/answer HTTP/1.1" 200 80
127.0.0.1 - - [08/Mar/2018:16:06:03 +0530] "GET / HTTP/1.1" 404 951
127.0.0.1 - - [08/Mar/2018:16:06:04 +0530] "GET /NewJobPortal/ HTTP/1.1" 200 13045
127.0.0.1 - - [08/Mar/2018:16:06:07 +0530] "GET /NewJobPortal/load HTTP/1.1" 200 13090
127.0.0.1 - - [08/Mar/2018:16:06:13 +0530] "GET /NewJobPortal/test.jsp HTTP/1.1" 200 980
127.0.0.1 - - [08/Mar/2018:16:06:20 +0530] "POST /NewJobPortal/hallid HTTP/1.1" 200 5150
127.0.0.1 - - [08/Mar/2018:16:06:33 +0530] "POST /NewJobPortal/answer HTTP/1.1" 200 80
127.0.0.1 - - [08/Mar/2018:16:06:41 +0530] "POST /NewJobPortal/hallid HTTP/1.1" 200 5150
127.0.0.1 - - [08/Mar/2018:16:14:26 +0530] "GET / HTTP/1.1" 404 951
127.0.0.1 - - [08/Mar/2018:16:14:26 +0530] "GET /NewJobPortal/ HTTP/1.1" 200 13045
127.0.0.1 - - [08/Mar/2018:16:14:29 +0530] "GET /NewJobPortal/load HTTP/1.1" 200 13090
127.0.0.1 - - [08/Mar/2018:16:14:30 +0530] "GET /NewJobPortal/test.jsp HTTP/1.1" 200 980
127.0.0.1 - - [08/Mar/2018:16:14:35 +0530] "POST /NewJobPortal/hallid HTTP/1.1" 200 5149
127.0.0.1 - - [08/Mar/2018:16:14:48 +0530] "POST /NewJobPortal/answer HTTP/1.1" 200 87
127.0.0.1 - - [08/Mar/2018:16:14:53 +0530] "POST /NewJobPortal/hallid HTTP/1.1" 200 5149
127.0.0.1 - - [08/Mar/2018:16:15:24 +0530] "GET /NewJobPortal/ HTTP/1.1" 200 13045
127.0.0.1 - - [08/Mar/2018:16:15:25 +0530] "GET /NewJobPortal/test.jsp HTTP/1.1" 200 980
127.0.0.1 - - [08/Mar/2018:16:15:25 +0530] "GET /NewJobPortal/load HTTP/1.1" 200 13090
127.0.0.1 - - [08/Mar/2018:16:15:27 +0530] "POST /NewJobPortal/hallid HTTP/1.1" 200 5149
127.0.0.1 - - [08/Mar/2018:16:15:43 +0530] "POST /NewJobPortal/answer HTTP/1.1" 200 82
127.0.0.1 - - [08/Mar/2018:16:15:52 +0530] "GET /NewJobPortal/load HTTP/1.1" 200 13090
127.0.0.1 - - [08/Mar/2018:16:43:19 +0530] "GET / HTTP/1.1" 404 951
127.0.0.1 - - [08/Mar/2018:16:43:21 +0530] "GET /NewJobPortal/ HTTP/1.1" 200 13216
127.0.0.1 - - [08/Mar/2018:16:43:21 +0530] "GET /NewJobPortal/css/normalize.css HTTP/1.1" 200 7708
127.0.0.1 - - [08/Mar/2018:16:43:21 +0530] "GET /NewJobPortal/css/owl.carousel.css HTTP/1.1" 200 4614
127.0.0.1 - - [08/Mar/2018:16:43:21 +0530] "GET /NewJobPortal/css/font-awesome.min.css HTTP/1.1" 200 26711
127.0.0.1 - - [08/Mar/2018:16:43:21 +0530] "GET /NewJobPortal/css/main.css HTTP/1.1" 200 5729
127.0.0.1 - - [08/Mar/2018:16:43:21 +0530] "GET /NewJobPortal/css/responsive.css HTTP/1.1" 200 1569
127.0.0.1 - - [08/Mar/2018:16:43:21 +0530] "GET /NewJobPortal/css/style.css HTTP/1.1" 200 18219
127.0.0.1 - - [08/Mar/2018:16:43:24 +0530] "GET /NewJobPortal/img/tech3.jpg HTTP/1.1" 200 180580
127.0.0.1 - - [08/Mar/2018:16:43:24 +0530] "GET /NewJobPortal/img/tech4.jpg HTTP/1.1" 200 93522
127.0.0.1 - - [08/Mar/2018:16:43:24 +0530] "GET /NewJobPortal/img/tech5.jpg HTTP/1.1" 200 108216
127.0.0.1 - - [08/Mar/2018:16:43:24 +0530] "GET /NewJobPortal/img/tech1.jpg HTTP/1.1" 200 278737
127.0.0.1 - - [08/Mar/2018:16:43:24 +0530] "GET /NewJobPortal/img/tech2.jpg HTTP/1.1" 200 372274
127.0.0.1 - - [08/Mar/2018:16:43:27 +0530] "GET /NewJobPortal/load HTTP/1.1" 200 13261
127.0.0.1 - - [08/Mar/2018:16:43:38 +0530] "GET /NewJobPortal/ HTTP/1.1" 200 13216
127.0.0.1 - - [08/Mar/2018:16:43:38 +0530] "GET /favicon.ico HTTP/1.1" 404 973
127.0.0.1 - - [08/Mar/2018:16:43:38 +0530] "GET /NewJobPortal/load HTTP/1.1" 200 13261
127.0.0.1 - - [08/Mar/2018:16:46:12 +0530] "GET /NewJobPortal/ HTTP/1.1" 200 13248
127.0.0.1 - - [08/Mar/2018:16:46:12 +0530] "GET /NewJobPortal/load HTTP/1.1" 200 13293
127.0.0.1 - - [08/Mar/2018:16:46:35 +0530] "GET /NewJobPortal/ HTTP/1.1" 200 13239
127.0.0.1 - - [08/Mar/2018:16:46:35 +0530] "GET /NewJobPortal/load HTTP/1.1" 200 13284
127.0.0.1 - - [08/Mar/2018:16:55:39 +0530] "GET /NewJobPortal/test.jsp HTTP/1.1" 200 980
127.0.0.1 - - [08/Mar/2018:16:55:43 +0530] "POST /NewJobPortal/hallid HTTP/1.1" 200 5151
127.0.0.1 - - [08/Mar/2018:16:55:59 +0530] "POST /NewJobPortal/answer HTTP/1.1" 200 82
127.0.0.1 - - [08/Mar/2018:16:56:11 +0530] "POST /NewJobPortal/hallid HTTP/1.1" 200 998
127.0.0.1 - - [08/Mar/2018:16:57:59 +0530] "GET /NewJobPortal/ HTTP/1.1" 200 13114
127.0.0.1 - - [08/Mar/2018:16:57:59 +0530] "GET /NewJobPortal/load HTTP/1.1" 200 13159
127.0.0.1 - - [08/Mar/2018:16:59:03 +0530] "GET /NewJobPortal/ HTTP/1.1" 200 13131
127.0.0.1 - - [08/Mar/2018:16:59:03 +0530] "GET /NewJobPortal/load HTTP/1.1" 200 13176
127.0.0.1 - - [08/Mar/2018:16:59:46 +0530] "GET /NewJobPortal/ HTTP/1.1" 200 13147
127.0.0.1 - - [08/Mar/2018:16:59:46 +0530] "GET /NewJobPortal/load HTTP/1.1" 200 13192
127.0.0.1 - - [08/Mar/2018:16:59:58 +0530] "GET /NewJobPortal/admitcard.jsp HTTP/1.1" 200 936
127.0.0.1 - - [08/Mar/2018:17:02:19 +0530] "GET /NewJobPortal/ HTTP/1.1" 200 13150
127.0.0.1 - - [08/Mar/2018:17:02:20 +0530] "GET /NewJobPortal/load HTTP/1.1" 200 13195
127.0.0.1 - - [08/Mar/2018:17:02:21 +0530] "GET /NewJobPortal/result.jsp HTTP/1.1" 200 885
127.0.0.1 - - [08/Mar/2018:17:02:30 +0530] "POST /NewJobPortal/result HTTP/1.1" 500 3820
127.0.0.1 - - [08/Mar/2018:17:02:35 +0530] "GET /NewJobPortal/result.jsp HTTP/1.1" 200 885
127.0.0.1 - - [08/Mar/2018:17:03:33 +0530] "GET /NewJobPortal/ HTTP/1.1" 200 13150
127.0.0.1 - - [08/Mar/2018:17:03:33 +0530] "GET /NewJobPortal/load HTTP/1.1" 200 13195
127.0.0.1 - - [08/Mar/2018:17:03:34 +0530] "GET /NewJobPortal/result.jsp HTTP/1.1" 200 885
127.0.0.1 - - [08/Mar/2018:17:03:38 +0530] "POST /NewJobPortal/result HTTP/1.1" 200 91
127.0.0.1 - - [08/Mar/2018:17:04:46 +0530] "GET /NewJobPortal/result.jsp HTTP/1.1" 200 885
127.0.0.1 - - [08/Mar/2018:17:04:51 +0530] "POST /NewJobPortal/result HTTP/1.1" 200 91
127.0.0.1 - - [08/Mar/2018:17:04:54 +0530] "GET /NewJobPortal/result.jsp HTTP/1.1" 200 885
127.0.0.1 - - [08/Mar/2018:17:05:01 +0530] "POST /NewJobPortal/result HTTP/1.1" 200 91
127.0.0.1 - - [08/Mar/2018:17:07:52 +0530] "GET / HTTP/1.1" 404 951
127.0.0.1 - - [08/Mar/2018:17:07:52 +0530] "GET /NewJobPortal/ HTTP/1.1" 200 13150
127.0.0.1 - - [08/Mar/2018:17:07:52 +0530] "GET /NewJobPortal/css/main.css HTTP/1.1" 200 5729
127.0.0.1 - - [08/Mar/2018:17:07:52 +0530] "GET /NewJobPortal/css/owl.carousel.css HTTP/1.1" 200 4614
127.0.0.1 - - [08/Mar/2018:17:07:52 +0530] "GET /NewJobPortal/css/responsive.css HTTP/1.1" 200 1569
127.0.0.1 - - [08/Mar/2018:17:07:52 +0530] "GET /NewJobPortal/css/style.css HTTP/1.1" 200 18219
127.0.0.1 - - [08/Mar/2018:17:07:52 +0530] "GET /NewJobPortal/css/normalize.css HTTP/1.1" 200 7708
127.0.0.1 - - [08/Mar/2018:17:07:52 +0530] "GET /NewJobPortal/css/font-awesome.min.css HTTP/1.1" 200 26711
127.0.0.1 - - [08/Mar/2018:17:07:54 +0530] "GET /NewJobPortal/img/tech5.jpg HTTP/1.1" 200 108216
127.0.0.1 - - [08/Mar/2018:17:07:54 +0530] "GET /NewJobPortal/img/tech4.jpg HTTP/1.1" 200 93522
127.0.0.1 - - [08/Mar/2018:17:07:57 +0530] "GET /NewJobPortal/ HTTP/1.1" 200 13150
127.0.0.1 - - [08/Mar/2018:17:07:57 +0530] "GET /NewJobPortal/load HTTP/1.1" 200 13195
127.0.0.1 - - [08/Mar/2018:17:07:58 +0530] "GET /NewJobPortal/load HTTP/1.1" 200 13195
127.0.0.1 - - [08/Mar/2018:17:07:59 +0530] "GET /NewJobPortal/result.jsp HTTP/1.1" 200 980
127.0.0.1 - - [08/Mar/2018:17:08:03 +0530] "POST /NewJobPortal/result HTTP/1.1" 200 1024
127.0.0.1 - - [08/Mar/2018:17:08:10 +0530] "POST /NewJobPortal/result HTTP/1.1" 200 1024
127.0.0.1 - - [08/Mar/2018:17:08:14 +0530] "POST /NewJobPortal/result HTTP/1.1" 500 3701
127.0.0.1 - - [08/Mar/2018:17:12:35 +0530] "GET /NewJobPortal/ HTTP/1.1" 200 13108
127.0.0.1 - - [08/Mar/2018:17:12:36 +0530] "GET /NewJobPortal/result.jsp HTTP/1.1" 200 980
127.0.0.1 - - [08/Mar/2018:17:12:37 +0530] "GET /NewJobPortal/load HTTP/1.1" 200 13153
127.0.0.1 - - [08/Mar/2018:17:12:39 +0530] "POST /NewJobPortal/result HTTP/1.1" 200 1024
127.0.0.1 - - [08/Mar/2018:17:12:49 +0530] "POST /NewJobPortal/result HTTP/1.1" 500 3701
127.0.0.1 - - [08/Mar/2018:17:18:07 +0530] "GET /NewJobPortal/ HTTP/1.1" 200 13108
127.0.0.1 - - [08/Mar/2018:17:18:08 +0530] "GET /NewJobPortal/load HTTP/1.1" 200 13153
127.0.0.1 - - [08/Mar/2018:17:18:08 +0530] "GET /NewJobPortal/load HTTP/1.1" 200 13153
127.0.0.1 - - [08/Mar/2018:17:18:08 +0530] "GET /NewJobPortal/result.jsp HTTP/1.1" 200 980
127.0.0.1 - - [08/Mar/2018:17:18:11 +0530] "POST /NewJobPortal/result HTTP/1.1" 200 1024
127.0.0.1 - - [08/Mar/2018:17:18:14 +0530] "POST /NewJobPortal/result HTTP/1.1" 500 3701
127.0.0.1 - - [08/Mar/2018:17:19:47 +0530] "GET /NewJobPortal/test.jsp HTTP/1.1" 200 980
127.0.0.1 - - [08/Mar/2018:17:19:50 +0530] "POST /NewJobPortal/hallid HTTP/1.1" 200 5151
127.0.0.1 - - [08/Mar/2018:17:20:07 +0530] "POST /NewJobPortal/answer HTTP/1.1" 200 87
127.0.0.1 - - [08/Mar/2018:17:20:14 +0530] "GET /NewJobPortal/result.jsp HTTP/1.1" 200 980
127.0.0.1 - - [08/Mar/2018:17:20:17 +0530] "POST /NewJobPortal/result HTTP/1.1" 200 1037
127.0.0.1 - - [08/Mar/2018:17:20:30 +0530] "POST /NewJobPortal/result HTTP/1.1" 200 1024
127.0.0.1 - - [08/Mar/2018:17:20:35 +0530] "POST /NewJobPortal/result HTTP/1.1" 200 1037
127.0.0.1 - - [08/Mar/2018:17:20:42 +0530] "POST /NewJobPortal/result HTTP/1.1" 200 1024
127.0.0.1 - - [08/Mar/2018:17:20:46 +0530] "POST /NewJobPortal/result HTTP/1.1" 200 1037
127.0.0.1 - - [08/Mar/2018:17:21:24 +0530] "GET /NewJobPortal/login.jsp HTTP/1.1" 200 1614
127.0.0.1 - - [08/Mar/2018:17:21:30 +0530] "POST /NewJobPortal/login HTTP/1.1" 200 432
127.0.0.1 - - [08/Mar/2018:17:21:30 +0530] "GET /NewJobPortal/top.jsp HTTP/1.1" 200 2334
127.0.0.1 - - [08/Mar/2018:17:21:30 +0530] "GET /NewJobPortal/graph.jsp HTTP/1.1" 200 1539
127.0.0.1 - - [08/Mar/2018:17:21:30 +0530] "GET /NewJobPortal/left.jsp HTTP/1.1" 200 48
127.0.0.1 - - [08/Mar/2018:17:21:30 +0530] "GET /NewJobPortal/rightt.jsp HTTP/1.1" 200 48
127.0.0.1 - - [08/Mar/2018:17:21:30 +0530] "GET /NewJobPortal/admin HTTP/1.1" 200 2338
127.0.0.1 - - [08/Mar/2018:17:21:31 +0530] "GET /NewJobPortal/details?jcode=null HTTP/1.1" 200 1565
127.0.0.1 - - [08/Mar/2018:17:21:33 +0530] "GET /NewJobPortal/postjob.jsp HTTP/1.1" 200 4365
127.0.0.1 - - [08/Mar/2018:17:21:33 +0530] "POST /NewJobPortal/update HTTP/1.1" 200 5053
127.0.0.1 - - [08/Mar/2018:17:22:12 +0530] "GET /NewJobPortal/postresult.jsp HTTP/1.1" 200 2123
127.0.0.1 - - [08/Mar/2018:17:22:14 +0530] "GET /NewJobPortal/postjob.jsp HTTP/1.1" 200 4365
127.0.0.1 - - [08/Mar/2018:17:22:14 +0530] "POST /NewJobPortal/update HTTP/1.1" 200 5053
127.0.0.1 - - [08/Mar/2018:17:22:20 +0530] "GET /NewJobPortal/graph.jsp?jcode=FRS20187 HTTP/1.1" 200 1547
127.0.0.1 - - [08/Mar/2018:17:22:22 +0530] "GET /NewJobPortal/details?jcode=FRS20187 HTTP/1.1" 200 1602
127.0.0.1 - - [08/Mar/2018:17:22:30 +0530] "POST /NewJobPortal/list?jcode= HTTP/1.1" 200 1509
127.0.0.1 - - [08/Mar/2018:17:22:47 +0530] "POST /NewJobPortal/update HTTP/1.1" 200 5053
127.0.0.1 - - [08/Mar/2018:17:22:55 +0530] "GET /NewJobPortal/postresult.jsp HTTP/1.1" 200 2123
127.0.0.1 - - [08/Mar/2018:17:22:59 +0530] "POST /NewJobPortal/detail HTTP/1.1" 404 989
127.0.0.1 - - [08/Mar/2018:17:23:16 +0530] "GET /NewJobPortal/graph.jsp HTTP/1.1" 200 1539
127.0.0.1 - - [08/Mar/2018:17:23:16 +0530] "GET /NewJobPortal/details?jcode=null HTTP/1.1" 200 1565
127.0.0.1 - - [08/Mar/2018:17:23:22 +0530] "GET /NewJobPortal/postjob.jsp HTTP/1.1" 200 4365
127.0.0.1 - - [08/Mar/2018:17:23:22 +0530] "POST /NewJobPortal/update HTTP/1.1" 200 5053
127.0.0.1 - - [08/Mar/2018:17:23:24 +0530] "GET /NewJobPortal/graph.jsp?jcode=FRS20186 HTTP/1.1" 200 1547
127.0.0.1 - - [08/Mar/2018:17:23:24 +0530] "GET /NewJobPortal/details?jcode=FRS20186 HTTP/1.1" 200 1602
127.0.0.1 - - [08/Mar/2018:17:23:27 +0530] "POST /NewJobPortal/list?jcode= HTTP/1.1" 200 993
127.0.0.1 - - [08/Mar/2018:17:24:29 +0530] "POST /NewJobPortal/update HTTP/1.1" 200 5053
127.0.0.1 - - [08/Mar/2018:17:24:30 +0530] "POST /NewJobPortal/update HTTP/1.1" 200 5053
127.0.0.1 - - [08/Mar/2018:17:24:31 +0530] "POST /NewJobPortal/update HTTP/1.1" 200 5053
127.0.0.1 - - [08/Mar/2018:17:24:35 +0530] "GET /NewJobPortal/ HTTP/1.1" 200 13108
127.0.0.1 - - [08/Mar/2018:17:24:35 +0530] "GET /NewJobPortal/load HTTP/1.1" 200 13153
127.0.0.1 - - [08/Mar/2018:17:24:36 +0530] "GET /NewJobPortal/test.jsp HTTP/1.1" 200 980
127.0.0.1 - - [08/Mar/2018:17:24:42 +0530] "POST /NewJobPortal/hallid HTTP/1.1" 200 5151
127.0.0.1 - - [08/Mar/2018:17:24:46 +0530] "POST /NewJobPortal/answer HTTP/1.1" 200 87
127.0.0.1 - - [08/Mar/2018:17:24:54 +0530] "GET /NewJobPortal/result.jsp HTTP/1.1" 200 980
127.0.0.1 - - [08/Mar/2018:17:24:59 +0530] "POST /NewJobPortal/result HTTP/1.1" 200 1037
127.0.0.1 - - [08/Mar/2018:17:25:14 +0530] "GET /NewJobPortal/test.jsp HTTP/1.1" 200 980
127.0.0.1 - - [08/Mar/2018:17:25:20 +0530] "POST /NewJobPortal/hallid HTTP/1.1" 200 998
127.0.0.1 - - [08/Mar/2018:17:56:40 +0530] "GET / HTTP/1.1" 404 951
127.0.0.1 - - [08/Mar/2018:17:56:41 +0530] "GET /NewJobPortal/ HTTP/1.1" 200 13108
127.0.0.1 - - [08/Mar/2018:17:56:44 +0530] "GET /NewJobPortal/load HTTP/1.1" 200 13153
127.0.0.1 - - [08/Mar/2018:17:56:51 +0530] "GET /NewJobPortal/ HTTP/1.1" 200 13108
127.0.0.1 - - [08/Mar/2018:17:56:52 +0530] "GET /NewJobPortal/load HTTP/1.1" 200 13153
127.0.0.1 - - [08/Mar/2018:17:56:56 +0530] "GET /NewJobPortal/ HTTP/1.1" 200 13108
127.0.0.1 - - [08/Mar/2018:17:56:56 +0530] "GET /NewJobPortal/load HTTP/1.1" 200 13153
127.0.0.1 - - [08/Mar/2018:17:56:57 +0530] "GET /NewJobPortal/test.jsp HTTP/1.1" 200 980
127.0.0.1 - - [08/Mar/2018:17:57:02 +0530] "POST /NewJobPortal/hallid HTTP/1.1" 200 5151
127.0.0.1 - - [08/Mar/2018:17:57:19 +0530] "POST /NewJobPortal/answer HTTP/1.1" 200 87
127.0.0.1 - - [08/Mar/2018:18:02:45 +0530] "GET /NewJobPortal/result.jsp HTTP/1.1" 200 980
127.0.0.1 - - [08/Mar/2018:18:02:52 +0530] "POST /NewJobPortal/result HTTP/1.1" 200 1037
127.0.0.1 - - [08/Mar/2018:18:03:22 +0530] "POST /NewJobPortal/result HTTP/1.1" 200 1037
127.0.0.1 - - [08/Mar/2018:18:08:59 +0530] "GET /NewJobPortal/ HTTP/1.1" 200 13108
127.0.0.1 - - [08/Mar/2018:18:08:59 +0530] "GET /NewJobPortal/css/normalize.css HTTP/1.1" 304 -
127.0.0.1 - - [08/Mar/2018:18:08:59 +0530] "GET /NewJobPortal/css/style.css HTTP/1.1" 304 -
127.0.0.1 - - [08/Mar/2018:18:08:59 +0530] "GET /NewJobPortal/css/responsive.css HTTP/1.1" 304 -
127.0.0.1 - - [08/Mar/2018:18:08:59 +0530] "GET /NewJobPortal/css/main.css HTTP/1.1" 304 -
127.0.0.1 - - [08/Mar/2018:18:08:59 +0530] "GET /NewJobPortal/css/owl.carousel.css HTTP/1.1" 304 -
127.0.0.1 - - [08/Mar/2018:18:08:59 +0530] "GET /NewJobPortal/css/font-awesome.min.css HTTP/1.1" 304 -
127.0.0.1 - - [08/Mar/2018:18:09:00 +0530] "GET /NewJobPortal/img/tech3.jpg HTTP/1.1" 304 -
127.0.0.1 - - [08/Mar/2018:18:09:00 +0530] "GET /NewJobPortal/img/tech5.jpg HTTP/1.1" 304 -
127.0.0.1 - - [08/Mar/2018:18:09:00 +0530] "GET /NewJobPortal/img/tech4.jpg HTTP/1.1" 304 -
127.0.0.1 - - [08/Mar/2018:18:09:00 +0530] "GET /NewJobPortal/img/tech1.jpg HTTP/1.1" 304 -
127.0.0.1 - - [08/Mar/2018:18:09:00 +0530] "GET /NewJobPortal/img/tech2.jpg HTTP/1.1" 304 -
127.0.0.1 - - [08/Mar/2018:18:09:01 +0530] "GET /NewJobPortal/load HTTP/1.1" 200 13147
127.0.0.1 - - [08/Mar/2018:18:29:51 +0530] "POST /NewJobPortal/result HTTP/1.1" 200 1024
127.0.0.1 - - [08/Mar/2018:18:48:53 +0530] "GET / HTTP/1.1" 404 951
127.0.0.1 - - [08/Mar/2018:18:48:54 +0530] "GET /ServletApplication/ HTTP/1.1" 200 983
127.0.0.1 - - [08/Mar/2018:18:49:04 +0530] "GET /ServletApplication/index HTTP/1.1" 200 984
127.0.0.1 - - [08/Mar/2018:18:49:16 +0530] "GET /ServletApplication/index HTTP/1.1" 200 984
127.0.0.1 - - [08/Mar/2018:18:49:27 +0530] "GET /ServletApplication/index HTTP/1.1" 200 984
127.0.0.1 - - [08/Mar/2018:18:49:27 +0530] "GET /ServletApplication/index HTTP/1.1" 200 984
127.0.0.1 - - [08/Mar/2018:18:49:28 +0530] "GET /ServletApplication/index HTTP/1.1" 200 984
127.0.0.1 - - [08/Mar/2018:18:49:28 +0530] "GET /ServletApplication/index HTTP/1.1" 200 984
127.0.0.1 - - [08/Mar/2018:18:49:28 +0530] "GET /ServletApplication/index HTTP/1.1" 200 984
127.0.0.1 - - [08/Mar/2018:18:49:28 +0530] "GET /ServletApplication/index HTTP/1.1" 200 984
127.0.0.1 - - [08/Mar/2018:18:49:28 +0530] "GET /ServletApplication/index HTTP/1.1" 200 984
127.0.0.1 - - [08/Mar/2018:18:49:29 +0530] "GET /ServletApplication/index HTTP/1.1" 200 984
127.0.0.1 - - [08/Mar/2018:18:58:20 +0530] "GET /ServletApplication/ HTTP/1.1" 200 983
127.0.0.1 - - [08/Mar/2018:18:58:45 +0530] "GET / HTTP/1.1" 404 951
127.0.0.1 - - [08/Mar/2018:18:59:08 +0530] "GET /ServletApplication/index.jsp HTTP/1.1" 200 164
127.0.0.1 - - [08/Mar/2018:18:59:53 +0530] "GET /ServletApplication/index.jsp HTTP/1.1" 200 157
127.0.0.1 - - [08/Mar/2018:19:00:08 +0530] "GET /ServletApplication/index.jsp HTTP/1.1" 200 157
127.0.0.1 - - [08/Mar/2018:19:01:53 +0530] "GET /ServletApplication/index.jsp HTTP/1.1" 200 323
127.0.0.1 - - [08/Mar/2018:19:02:07 +0530] "GET /ServletApplication/index.jsp HTTP/1.1" 200 323
127.0.0.1 - - [08/Mar/2018:19:03:25 +0530] "GET /ServletApplication/index HTTP/1.1" 200 1143
127.0.0.1 - - [08/Mar/2018:19:04:16 +0530] "GET /ServletApplication/index HTTP/1.1" 200 1175
127.0.0.1 - - [08/Mar/2018:19:06:15 +0530] "GET /ServletApplication/index.jsp HTTP/1.1" 200 355
127.0.0.1 - - [08/Mar/2018:19:06:27 +0530] "GET /ServletApplication/index.jsp?index HTTP/1.1" 200 355
127.0.0.1 - - [08/Mar/2018:19:07:56 +0530] "GET /ServletApplication/index.jsp?index HTTP/1.1" 200 355
127.0.0.1 - - [08/Mar/2018:19:08:03 +0530] "GET /ServletApplication/index.jsp HTTP/1.1" 200 355
127.0.0.1 - - [08/Mar/2018:19:09:37 +0530] "GET /ServletApplication/index.jsp HTTP/1.1" 200 355
127.0.0.1 - - [08/Mar/2018:19:09:42 +0530] "GET /ServletApplication/index.jsp HTTP/1.1" 200 355
127.0.0.1 - - [08/Mar/2018:19:10:11 +0530] "GET /ServletApplication/index.jsp HTTP/1.1" 200 355
127.0.0.1 - - [08/Mar/2018:19:11:09 +0530] "GET /ServletApplication/index.jsp HTTP/1.1" 200 355
127.0.0.1 - - [08/Mar/2018:19:11:16 +0530] "GET /ServletApplication/index.jsp/index HTTP/1.1" 404 1019
127.0.0.1 - - [08/Mar/2018:19:11:24 +0530] "GET /ServletApplication/index HTTP/1.1" 200 1175
127.0.0.1 - - [08/Mar/2018:19:12:42 +0530] "GET /ServletApplication/index HTTP/1.1" 200 1180
127.0.0.1 - - [08/Mar/2018:19:16:20 +0530] "GET /ServletApplication/index.jsp HTTP/1.1" 200 866
127.0.0.1 - - [08/Mar/2018:19:16:25 +0530] "POST /ServletApplication/index HTTP/1.1" 405 1067
127.0.0.1 - - [08/Mar/2018:19:16:34 +0530] "POST /ServletApplication/index HTTP/1.1" 405 1067
127.0.0.1 - - [08/Mar/2018:19:17:02 +0530] "GET /ServletApplication/index.jsp HTTP/1.1" 200 865
127.0.0.1 - - [08/Mar/2018:19:17:04 +0530] "GET /ServletApplication/index HTTP/1.1" 200 1685
127.0.0.1 - - [08/Mar/2018:19:17:06 +0530] "GET /ServletApplication/index.jsp HTTP/1.1" 200 865
127.0.0.1 - - [08/Mar/2018:19:17:08 +0530] "GET /ServletApplication/index HTTP/1.1" 200 1685
127.0.0.1 - - [08/Mar/2018:19:17:40 +0530] "GET /ServletApplication/index.jsp HTTP/1.1" 200 865
127.0.0.1 - - [08/Mar/2018:19:17:42 +0530] "GET /ServletApplication/index HTTP/1.1" 200 1685
127.0.0.1 - - [08/Mar/2018:19:17:43 +0530] "GET /ServletApplication/index.jsp HTTP/1.1" 200 865
127.0.0.1 - - [08/Mar/2018:19:17:45 +0530] "GET /ServletApplication/index HTTP/1.1" 200 1685
127.0.0.1 - - [08/Mar/2018:19:18:22 +0530] "GET /ServletApplication/index.jsp HTTP/1.1" 200 867
127.0.0.1 - - [08/Mar/2018:19:18:25 +0530] "GET /ServletApplication/index.jsp HTTP/1.1" 200 867
127.0.0.1 - - [08/Mar/2018:19:18:27 +0530] "GET /ServletApplication/index.jsp HTTP/1.1" 200 867
127.0.0.1 - - [08/Mar/2018:19:18:30 +0530] "GET /ServletApplication/index.jsp HTTP/1.1" 200 867
127.0.0.1 - - [08/Mar/2018:19:19:59 +0530] "GET /ServletApplication/index.jsp HTTP/1.1" 200 877
127.0.0.1 - - [08/Mar/2018:19:20:10 +0530] "GET /ServletApplication/index.jsp HTTP/1.1" 200 875
127.0.0.1 - - [08/Mar/2018:19:20:11 +0530] "GET /ServletApplication/index HTTP/1.1" 200 1695
127.0.0.1 - - [08/Mar/2018:20:54:00 +0530] "GET / HTTP/1.1" 404 951
127.0.0.1 - - [08/Mar/2018:20:54:05 +0530] "GET /NewJobPortal/ HTTP/1.1" 200 13108
127.0.0.1 - - [08/Mar/2018:20:54:05 +0530] "GET /NewJobPortal/css/responsive.css HTTP/1.1" 200 1569
127.0.0.1 - - [08/Mar/2018:20:54:05 +0530] "GET /NewJobPortal/css/main.css HTTP/1.1" 200 5729
127.0.0.1 - - [08/Mar/2018:20:54:05 +0530] "GET /NewJobPortal/css/font-awesome.min.css HTTP/1.1" 200 26711
127.0.0.1 - - [08/Mar/2018:20:54:05 +0530] "GET /NewJobPortal/css/owl.carousel.css HTTP/1.1" 200 4614
127.0.0.1 - - [08/Mar/2018:20:54:05 +0530] "GET /NewJobPortal/css/style.css HTTP/1.1" 200 18219
127.0.0.1 - - [08/Mar/2018:20:54:05 +0530] "GET /NewJobPortal/css/normalize.css HTTP/1.1" 200 7708
127.0.0.1 - - [08/Mar/2018:20:54:07 +0530] "GET /NewJobPortal/img/tech5.jpg HTTP/1.1" 200 108216
127.0.0.1 - - [08/Mar/2018:20:54:07 +0530] "GET /NewJobPortal/img/tech4.jpg HTTP/1.1" 200 93522
127.0.0.1 - - [08/Mar/2018:20:54:07 +0530] "GET /NewJobPortal/img/tech3.jpg HTTP/1.1" 200 180580
127.0.0.1 - - [08/Mar/2018:20:54:07 +0530] "GET /NewJobPortal/img/tech1.jpg HTTP/1.1" 200 278737
127.0.0.1 - - [08/Mar/2018:20:54:07 +0530] "GET /NewJobPortal/img/tech2.jpg HTTP/1.1" 200 372274
127.0.0.1 - - [08/Mar/2018:20:54:11 +0530] "GET /NewJobPortal/load HTTP/1.1" 200 13147
127.0.0.1 - - [08/Mar/2018:20:54:18 +0530] "GET /NewJobPortal/ HTTP/1.1" 200 13108
127.0.0.1 - - [08/Mar/2018:20:54:18 +0530] "GET /favicon.ico HTTP/1.1" 404 973
127.0.0.1 - - [08/Mar/2018:20:54:19 +0530] "GET /NewJobPortal/load HTTP/1.1" 200 13147
127.0.0.1 - - [08/Mar/2018:20:54:27 +0530] "GET /NewJobPortal/ HTTP/1.1" 200 13108
127.0.0.1 - - [08/Mar/2018:20:54:28 +0530] "GET /NewJobPortal/load HTTP/1.1" 200 13147
127.0.0.1 - - [08/Mar/2018:20:54:29 +0530] "GET /NewJobPortal/login.jsp HTTP/1.1" 200 1614
127.0.0.1 - - [08/Mar/2018:20:54:34 +0530] "POST /NewJobPortal/login HTTP/1.1" 200 432
127.0.0.1 - - [08/Mar/2018:20:54:34 +0530] "GET /NewJobPortal/left.jsp HTTP/1.1" 200 48
127.0.0.1 - - [08/Mar/2018:20:54:34 +0530] "GET /NewJobPortal/rightt.jsp HTTP/1.1" 200 48
127.0.0.1 - - [08/Mar/2018:20:54:34 +0530] "GET /NewJobPortal/top.jsp HTTP/1.1" 200 2334
127.0.0.1 - - [08/Mar/2018:20:54:34 +0530] "GET /NewJobPortal/admin HTTP/1.1" 200 2338
127.0.0.1 - - [08/Mar/2018:20:54:34 +0530] "GET /NewJobPortal/graph.jsp HTTP/1.1" 200 1539
127.0.0.1 - - [08/Mar/2018:20:54:34 +0530] "GET /NewJobPortal/details?jcode=null HTTP/1.1" 200 1565
