<?xml version="1.0" encoding="UTF-8"?>
<session version="1.0">
<refactoring comment="Copy element &apos;hibernate.cfg.xml&apos; to &apos;HasA_O2O/src/resource&apos;&#x0A;- Original project: &apos;HasA_M2O&apos;&#x0A;- Destination element: &apos;HasA_O2O/src/resource&apos;&#x0A;- Original element: &apos;hibernate.cfg.xml&apos;" description="Copy file" destination="=HasA_O2O/src&lt;resource" element1="src/resource/hibernate.cfg.xml" files="1" flags="589830" folders="0" id="org.eclipse.jdt.ui.copy" policy="org.eclipse.jdt.ui.copyResources" stamp="1516203319698" units="0" version="1.0"/>
</session>